{
  "pokemons": {
    "count": 1281,
    "next": "https://pokeapi.co/api/v2/pokemon/?offset=20&limit=20",
    "previous": null,
    "nextOffset": 20,
    "prevOffset": 0,
    "status": true,
    "message": "",
    "results": [
      {
        "id": 1,
        "name": "bulbasaur",
        "url": "https://pokeapi.co/api/v2/pokemon/1/",
        "image": "https://raw.githubusercontent.com/PokeAPI/sprites/master/sprites/pokemon/1.png",
        "artwork": "https://raw.githubusercontent.com/PokeAPI/sprites/master/sprites/pokemon/other/official-artwork/1.png",
        "dreamworld": "https://raw.githubusercontent.com/PokeAPI/sprites/master/sprites/pokemon/other/dream-world/1.svg",
        "__typename": "PokemonItem"
      },
      {
        "id": 2,
        "name": "ivysaur",
        "url": "https://pokeapi.co/api/v2/pokemon/2/",
        "image": "https://raw.githubusercontent.com/PokeAPI/sprites/master/sprites/pokemon/2.png",
        "artwork": "https://raw.githubusercontent.com/PokeAPI/sprites/master/sprites/pokemon/other/official-artwork/2.png",
        "dreamworld": "https://raw.githubusercontent.com/PokeAPI/sprites/master/sprites/pokemon/other/dream-world/2.svg",
        "__typename": "PokemonItem"
      },
      {
        "id": 3,
        "name": "venusaur",
        "url": "https://pokeapi.co/api/v2/pokemon/3/",
        "image": "https://raw.githubusercontent.com/PokeAPI/sprites/master/sprites/pokemon/3.png",
        "artwork": "https://raw.githubusercontent.com/PokeAPI/sprites/master/sprites/pokemon/other/official-artwork/3.png",
        "dreamworld": "https://raw.githubusercontent.com/PokeAPI/sprites/master/sprites/pokemon/other/dream-world/3.svg",
        "__typename": "PokemonItem"
      },
      {
        "id": 4,
        "name": "charmander",
        "url": "https://pokeapi.co/api/v2/pokemon/4/",
        "image": "https://raw.githubusercontent.com/PokeAPI/sprites/master/sprites/pokemon/4.png",
        "artwork": "https://raw.githubusercontent.com/PokeAPI/sprites/master/sprites/pokemon/other/official-artwork/4.png",
        "dreamworld": "https://raw.githubusercontent.com/PokeAPI/sprites/master/sprites/pokemon/other/dream-world/4.svg",
        "__typename": "PokemonItem"
      },
      {
        "id": 5,
        "name": "charmeleon",
        "url": "https://pokeapi.co/api/v2/pokemon/5/",
        "image": "https://raw.githubusercontent.com/PokeAPI/sprites/master/sprites/pokemon/5.png",
        "artwork": "https://raw.githubusercontent.com/PokeAPI/sprites/master/sprites/pokemon/other/official-artwork/5.png",
        "dreamworld": "https://raw.githubusercontent.com/PokeAPI/sprites/master/sprites/pokemon/other/dream-world/5.svg",
        "__typename": "PokemonItem"
      },
      {
        "id": 6,
        "name": "charizard",
        "url": "https://pokeapi.co/api/v2/pokemon/6/",
        "image": "https://raw.githubusercontent.com/PokeAPI/sprites/master/sprites/pokemon/6.png",
        "artwork": "https://raw.githubusercontent.com/PokeAPI/sprites/master/sprites/pokemon/other/official-artwork/6.png",
        "dreamworld": "https://raw.githubusercontent.com/PokeAPI/sprites/master/sprites/pokemon/other/dream-world/6.svg",
        "__typename": "PokemonItem"
      },
      {
        "id": 7,
        "name": "squirtle",
        "url": "https://pokeapi.co/api/v2/pokemon/7/",
        "image": "https://raw.githubusercontent.com/PokeAPI/sprites/master/sprites/pokemon/7.png",
        "artwork": "https://raw.githubusercontent.com/PokeAPI/sprites/master/sprites/pokemon/other/official-artwork/7.png",
        "dreamworld": "https://raw.githubusercontent.com/PokeAPI/sprites/master/sprites/pokemon/other/dream-world/7.svg",
        "__typename": "PokemonItem"
      },
      {
        "id": 8,
        "name": "wartortle",
        "url": "https://pokeapi.co/api/v2/pokemon/8/",
        "image": "https://raw.githubusercontent.com/PokeAPI/sprites/master/sprites/pokemon/8.png",
        "artwork": "https://raw.githubusercontent.com/PokeAPI/sprites/master/sprites/pokemon/other/official-artwork/8.png",
        "dreamworld": "https://raw.githubusercontent.com/PokeAPI/sprites/master/sprites/pokemon/other/dream-world/8.svg",
        "__typename": "PokemonItem"
      },
      {
        "id": 9,
        "name": "blastoise",
        "url": "https://pokeapi.co/api/v2/pokemon/9/",
        "image": "https://raw.githubusercontent.com/PokeAPI/sprites/master/sprites/pokemon/9.png",
        "artwork": "https://raw.githubusercontent.com/PokeAPI/sprites/master/sprites/pokemon/other/official-artwork/9.png",
        "dreamworld": "https://raw.githubusercontent.com/PokeAPI/sprites/master/sprites/pokemon/other/dream-world/9.svg",
        "__typename": "PokemonItem"
      },
      {
        "id": 10,
        "name": "caterpie",
        "url": "https://pokeapi.co/api/v2/pokemon/10/",
        "image": "https://raw.githubusercontent.com/PokeAPI/sprites/master/sprites/pokemon/10.png",
        "artwork": "https://raw.githubusercontent.com/PokeAPI/sprites/master/sprites/pokemon/other/official-artwork/10.png",
        "dreamworld": "https://raw.githubusercontent.com/PokeAPI/sprites/master/sprites/pokemon/other/dream-world/10.svg",
        "__typename": "PokemonItem"
      },
      {
        "id": 11,
        "name": "metapod",
        "url": "https://pokeapi.co/api/v2/pokemon/11/",
        "image": "https://raw.githubusercontent.com/PokeAPI/sprites/master/sprites/pokemon/11.png",
        "artwork": "https://raw.githubusercontent.com/PokeAPI/sprites/master/sprites/pokemon/other/official-artwork/11.png",
        "dreamworld": "https://raw.githubusercontent.com/PokeAPI/sprites/master/sprites/pokemon/other/dream-world/11.svg",
        "__typename": "PokemonItem"
      },
      {
        "id": 12,
        "name": "butterfree",
        "url": "https://pokeapi.co/api/v2/pokemon/12/",
        "image": "https://raw.githubusercontent.com/PokeAPI/sprites/master/sprites/pokemon/12.png",
        "artwork": "https://raw.githubusercontent.com/PokeAPI/sprites/master/sprites/pokemon/other/official-artwork/12.png",
        "dreamworld": "https://raw.githubusercontent.com/PokeAPI/sprites/master/sprites/pokemon/other/dream-world/12.svg",
        "__typename": "PokemonItem"
      },
      {
        "id": 13,
        "name": "weedle",
        "url": "https://pokeapi.co/api/v2/pokemon/13/",
        "image": "https://raw.githubusercontent.com/PokeAPI/sprites/master/sprites/pokemon/13.png",
        "artwork": "https://raw.githubusercontent.com/PokeAPI/sprites/master/sprites/pokemon/other/official-artwork/13.png",
        "dreamworld": "https://raw.githubusercontent.com/PokeAPI/sprites/master/sprites/pokemon/other/dream-world/13.svg",
        "__typename": "PokemonItem"
      },
      {
        "id": 14,
        "name": "kakuna",
        "url": "https://pokeapi.co/api/v2/pokemon/14/",
        "image": "https://raw.githubusercontent.com/PokeAPI/sprites/master/sprites/pokemon/14.png",
        "artwork": "https://raw.githubusercontent.com/PokeAPI/sprites/master/sprites/pokemon/other/official-artwork/14.png",
        "dreamworld": "https://raw.githubusercontent.com/PokeAPI/sprites/master/sprites/pokemon/other/dream-world/14.svg",
        "__typename": "PokemonItem"
      },
      {
        "id": 15,
        "name": "beedrill",
        "url": "https://pokeapi.co/api/v2/pokemon/15/",
        "image": "https://raw.githubusercontent.com/PokeAPI/sprites/master/sprites/pokemon/15.png",
        "artwork": "https://raw.githubusercontent.com/PokeAPI/sprites/master/sprites/pokemon/other/official-artwork/15.png",
        "dreamworld": "https://raw.githubusercontent.com/PokeAPI/sprites/master/sprites/pokemon/other/dream-world/15.svg",
        "__typename": "PokemonItem"
      },
      {
        "id": 16,
        "name": "pidgey",
        "url": "https://pokeapi.co/api/v2/pokemon/16/",
        "image": "https://raw.githubusercontent.com/PokeAPI/sprites/master/sprites/pokemon/16.png",
        "artwork": "https://raw.githubusercontent.com/PokeAPI/sprites/master/sprites/pokemon/other/official-artwork/16.png",
        "dreamworld": "https://raw.githubusercontent.com/PokeAPI/sprites/master/sprites/pokemon/other/dream-world/16.svg",
        "__typename": "PokemonItem"
      },
      {
        "id": 17,
        "name": "pidgeotto",
        "url": "https://pokeapi.co/api/v2/pokemon/17/",
        "image": "https://raw.githubusercontent.com/PokeAPI/sprites/master/sprites/pokemon/17.png",
        "artwork": "https://raw.githubusercontent.com/PokeAPI/sprites/master/sprites/pokemon/other/official-artwork/17.png",
        "dreamworld": "https://raw.githubusercontent.com/PokeAPI/sprites/master/sprites/pokemon/other/dream-world/17.svg",
        "__typename": "PokemonItem"
      },
      {
        "id": 18,
        "name": "pidgeot",
        "url": "https://pokeapi.co/api/v2/pokemon/18/",
        "image": "https://raw.githubusercontent.com/PokeAPI/sprites/master/sprites/pokemon/18.png",
        "artwork": "https://raw.githubusercontent.com/PokeAPI/sprites/master/sprites/pokemon/other/official-artwork/18.png",
        "dreamworld": "https://raw.githubusercontent.com/PokeAPI/sprites/master/sprites/pokemon/other/dream-world/18.svg",
        "__typename": "PokemonItem"
      },
      {
        "id": 19,
        "name": "rattata",
        "url": "https://pokeapi.co/api/v2/pokemon/19/",
        "image": "https://raw.githubusercontent.com/PokeAPI/sprites/master/sprites/pokemon/19.png",
        "artwork": "https://raw.githubusercontent.com/PokeAPI/sprites/master/sprites/pokemon/other/official-artwork/19.png",
        "dreamworld": "https://raw.githubusercontent.com/PokeAPI/sprites/master/sprites/pokemon/other/dream-world/19.svg",
        "__typename": "PokemonItem"
      },
      {
        "id": 20,
        "name": "raticate",
        "url": "https://pokeapi.co/api/v2/pokemon/20/",
        "image": "https://raw.githubusercontent.com/PokeAPI/sprites/master/sprites/pokemon/20.png",
        "artwork": "https://raw.githubusercontent.com/PokeAPI/sprites/master/sprites/pokemon/other/official-artwork/20.png",
        "dreamworld": "https://raw.githubusercontent.com/PokeAPI/sprites/master/sprites/pokemon/other/dream-world/20.svg",
        "__typename": "PokemonItem"
      }
    ],
    "__typename": "PokemonList"
  }
}
